digraph G { 

rank=same;
ranksep=equally;
nodesep=equally;

// TS = 0
0.0[label=L0];
1.0[label=L1];
2.0[label=L2];
3.0[shape=box,fontsize=16,label="TS 0"];
0.0 -> 1.0[style="invis"];
1.0 -> 2.0[style="invis"];
2.0 -> 3.0[style="invis"];
0.0 -> 1.0[color=green,fontcolor=green,penwidth=2]

// TS = 1
0.1[label=L0];
1.1[label=L1];
2.1[label=L2];
3.1[shape=box,fontsize=16,label="TS 1"];
0.1 -> 1.1[style="invis"];
1.1 -> 2.1[style="invis"];
2.1 -> 3.1[style="invis"];
1.1 -> 2.1[color=green,fontcolor=green,penwidth=2]

// TS = 2
0.2[label=L0];
1.2[label=L1];
2.2[label=L2];
3.2[shape=box,fontsize=16,label="TS 2"];
0.2 -> 1.2[style="invis"];
1.2 -> 2.2[style="invis"];
2.2 -> 3.2[style="invis"];
0.2 -> 2.2[color=green,fontcolor=green,penwidth=2]


// Ranks
{ rank = same; 0.0; 0.1; 0.2;}
{ rank = same; 1.0; 1.1; 1.2;}
{ rank = same; 2.0; 2.1; 2.2;}
 
}